{
  "email": "Testing",
  "phone": 889898942,
  "address": "testing",
  "town_id" : 1 ,
  "books": [
    {
      "book_id": 1,
      "qty": 1
    },
    {
      "book_id": 2,
      "qty": 2
    }
  ]
}